/home/roman/Work/lab1/src/main/java/PacketHandler.java
/home/roman/Work/lab1/src/main/java/MulticastReceiver.java
/home/roman/Work/lab1/src/main/java/model/Data.java
/home/roman/Work/lab1/src/main/java/Starter.java
/home/roman/Work/lab1/src/main/java/MulticastSender.java
